{
    "name":"Ventnor Avenue",
    "description":"",
    "property":{
        "property_type":"street",
        "group": 5,
        "value":260,
        "house_value":150,
        "rent":[22,110,330,800,975,1150],
        "mortgage_value": 130
    }
}